[
    {
        "id": 1,
        "isComponent" : 1,
        "name": "Nama Komponen",
        "items": [
            {
                "title" : "Penilaian 0",
                "skala" : 0
            },
            {
                "title" : "Penilaian 2",
                "skala" : 1
            },
            {
                "title" : "Penilaian 2",
                "skala" : 2
            },
            {
                "title" : "Penilaian 3",
                "skala" : 3
            },
            {
                "title" : "Penilaian 4",
                "skala" : 4
            },
            
            {
                "title" : "Penilaian 5",
                "skala" : 5
            }
        ]
    },
    {
        "id": 1,
        "isComponent" : 1,
        "name": "Nama Komponen",
        "items": [
            {
                "title" : "Penilaian 0",
                "skala" : 0
            },
            {
                "title" : "Penilaian 2",
                "skala" : 1
            },
            {
                "title" : "Penilaian 2",
                "skala" : 2
            },
            {
                "title" : "Penilaian 3",
                "skala" : 3
            },
            {
                "title" : "Penilaian 4",
                "skala" : 4
            },
            
            {
                "title" : "Penilaian 5",
                "skala" : 5
            }
        ]
    }
]